dump.vcd
$date
	Thu Sep 14 08:17:06 2023
$end
$version
	QuestaSim Version 2021.3
$end
$timescale
	1ns
$end

$scope module uvm_root $end
$upscope $end

$scope module testbench $end
$var reg 1 ! clk $end
$var reg 1 " reset $end

$scope module dut $end
$var parameter 32 # DEPTH $end
$var parameter 32 $ DATA_WIDTH $end
$var wire 1 % clk $end
$var wire 1 & reset $end
$var wire 1 ' i_wren $end
$var wire 1 ( i_rden $end
$var wire 1 ) i_wrdata [127] $end
$var wire 1 * i_wrdata [126] $end
$var wire 1 + i_wrdata [125] $end
$var wire 1 , i_wrdata [124] $end
$var wire 1 - i_wrdata [123] $end
$var wire 1 . i_wrdata [122] $end
$var wire 1 / i_wrdata [121] $end
$var wire 1 0 i_wrdata [120] $end
$var wire 1 1 i_wrdata [119] $end
$var wire 1 2 i_wrdata [118] $end
$var wire 1 3 i_wrdata [117] $end
$var wire 1 4 i_wrdata [116] $end
$var wire 1 5 i_wrdata [115] $end
$var wire 1 6 i_wrdata [114] $end
$var wire 1 7 i_wrdata [113] $end
$var wire 1 8 i_wrdata [112] $end
$var wire 1 9 i_wrdata [111] $end
$var wire 1 : i_wrdata [110] $end
$var wire 1 ; i_wrdata [109] $end
$var wire 1 < i_wrdata [108] $end
$var wire 1 = i_wrdata [107] $end
$var wire 1 > i_wrdata [106] $end
$var wire 1 ? i_wrdata [105] $end
$var wire 1 @ i_wrdata [104] $end
$var wire 1 A i_wrdata [103] $end
$var wire 1 B i_wrdata [102] $end
$var wire 1 C i_wrdata [101] $end
$var wire 1 D i_wrdata [100] $end
$var wire 1 E i_wrdata [99] $end
$var wire 1 F i_wrdata [98] $end
$var wire 1 G i_wrdata [97] $end
$var wire 1 H i_wrdata [96] $end
$var wire 1 I i_wrdata [95] $end
$var wire 1 J i_wrdata [94] $end
$var wire 1 K i_wrdata [93] $end
$var wire 1 L i_wrdata [92] $end
$var wire 1 M i_wrdata [91] $end
$var wire 1 N i_wrdata [90] $end
$var wire 1 O i_wrdata [89] $end
$var wire 1 P i_wrdata [88] $end
$var wire 1 Q i_wrdata [87] $end
$var wire 1 R i_wrdata [86] $end
$var wire 1 S i_wrdata [85] $end
$var wire 1 T i_wrdata [84] $end
$var wire 1 U i_wrdata [83] $end
$var wire 1 V i_wrdata [82] $end
$var wire 1 W i_wrdata [81] $end
$var wire 1 X i_wrdata [80] $end
$var wire 1 Y i_wrdata [79] $end
$var wire 1 Z i_wrdata [78] $end
$var wire 1 [ i_wrdata [77] $end
$var wire 1 \ i_wrdata [76] $end
$var wire 1 ] i_wrdata [75] $end
$var wire 1 ^ i_wrdata [74] $end
$var wire 1 _ i_wrdata [73] $end
$var wire 1 ` i_wrdata [72] $end
$var wire 1 a i_wrdata [71] $end
$var wire 1 b i_wrdata [70] $end
$var wire 1 c i_wrdata [69] $end
$var wire 1 d i_wrdata [68] $end
$var wire 1 e i_wrdata [67] $end
$var wire 1 f i_wrdata [66] $end
$var wire 1 g i_wrdata [65] $end
$var wire 1 h i_wrdata [64] $end
$var wire 1 i i_wrdata [63] $end
$var wire 1 j i_wrdata [62] $end
$var wire 1 k i_wrdata [61] $end
$var wire 1 l i_wrdata [60] $end
$var wire 1 m i_wrdata [59] $end
$var wire 1 n i_wrdata [58] $end
$var wire 1 o i_wrdata [57] $end
$var wire 1 p i_wrdata [56] $end
$var wire 1 q i_wrdata [55] $end
$var wire 1 r i_wrdata [54] $end
$var wire 1 s i_wrdata [53] $end
$var wire 1 t i_wrdata [52] $end
$var wire 1 u i_wrdata [51] $end
$var wire 1 v i_wrdata [50] $end
$var wire 1 w i_wrdata [49] $end
$var wire 1 x i_wrdata [48] $end
$var wire 1 y i_wrdata [47] $end
$var wire 1 z i_wrdata [46] $end
$var wire 1 { i_wrdata [45] $end
$var wire 1 | i_wrdata [44] $end
$var wire 1 } i_wrdata [43] $end
$var wire 1 ~ i_wrdata [42] $end
$var wire 1 !! i_wrdata [41] $end
$var wire 1 "! i_wrdata [40] $end
$var wire 1 #! i_wrdata [39] $end
$var wire 1 $! i_wrdata [38] $end
$var wire 1 %! i_wrdata [37] $end
$var wire 1 &! i_wrdata [36] $end
$var wire 1 '! i_wrdata [35] $end
$var wire 1 (! i_wrdata [34] $end
$var wire 1 )! i_wrdata [33] $end
$var wire 1 *! i_wrdata [32] $end
$var wire 1 +! i_wrdata [31] $end
$var wire 1 ,! i_wrdata [30] $end
$var wire 1 -! i_wrdata [29] $end
$var wire 1 .! i_wrdata [28] $end
$var wire 1 /! i_wrdata [27] $end
$var wire 1 0! i_wrdata [26] $end
$var wire 1 1! i_wrdata [25] $end
$var wire 1 2! i_wrdata [24] $end
$var wire 1 3! i_wrdata [23] $end
$var wire 1 4! i_wrdata [22] $end
$var wire 1 5! i_wrdata [21] $end
$var wire 1 6! i_wrdata [20] $end
$var wire 1 7! i_wrdata [19] $end
$var wire 1 8! i_wrdata [18] $end
$var wire 1 9! i_wrdata [17] $end
$var wire 1 :! i_wrdata [16] $end
$var wire 1 ;! i_wrdata [15] $end
$var wire 1 <! i_wrdata [14] $end
$var wire 1 =! i_wrdata [13] $end
$var wire 1 >! i_wrdata [12] $end
$var wire 1 ?! i_wrdata [11] $end
$var wire 1 @! i_wrdata [10] $end
$var wire 1 A! i_wrdata [9] $end
$var wire 1 B! i_wrdata [8] $end
$var wire 1 C! i_wrdata [7] $end
$var wire 1 D! i_wrdata [6] $end
$var wire 1 E! i_wrdata [5] $end
$var wire 1 F! i_wrdata [4] $end
$var wire 1 G! i_wrdata [3] $end
$var wire 1 H! i_wrdata [2] $end
$var wire 1 I! i_wrdata [1] $end
$var wire 1 J! i_wrdata [0] $end
$var reg 128 K! o_rddata [127:0] $end
$var reg 1 L! o_full $end
$var reg 1 M! o_empty $end
$var reg 10 N! read_ptr [9:0] $end
$var reg 10 O! write_ptr [9:0] $end
$var reg 10 P! count [9:0] $end
$upscope $end
$upscope $end

$scope begin uvm_pkg $end
$var parameter 32 Q! UVM_HDL_MAX_WIDTH $end
$var parameter 32 R! UVM_STREAMBITS $end
$var parameter 32 S! UVM_RADIX $end
$var parameter 32 T! UVM_MACRO_NUMFLAGS $end
$var parameter 32 U! UVM_DEFAULT $end
$var parameter 32 V! UVM_ALL_ON $end
$var parameter 32 W! UVM_FLAGS_ON $end
$var parameter 32 X! UVM_FLAGS_OFF $end
$var parameter 32 Y! UVM_COPY $end
$var parameter 32 Z! UVM_NOCOPY $end
$var parameter 32 [! UVM_COMPARE $end
$var parameter 32 \! UVM_NOCOMPARE $end
$var parameter 32 ]! UVM_PRINT $end
$var parameter 32 ^! UVM_NOPRINT $end
$var parameter 32 _! UVM_RECORD $end
$var parameter 32 `! UVM_NORECORD $end
$var parameter 32 a! UVM_PACK $end
$var parameter 32 b! UVM_NOPACK $end
$var parameter 32 c! UVM_PHYSICAL $end
$var parameter 32 d! UVM_ABSTRACT $end
$var parameter 32 e! UVM_READONLY $end
$var parameter 32 f! UVM_NODEFPRINT $end
$var parameter 32 g! UVM_MACRO_EXTRAS $end
$var parameter 32 h! UVM_FLAGS $end
$var parameter 32 i! UVM_UNPACK $end
$var parameter 32 j! UVM_CHECK_FIELDS $end
$var parameter 32 k! UVM_END_DATA_EXTRA $end
$var parameter 32 l! UVM_START_FUNCS $end
$var parameter 32 m! UVM_SET $end
$var parameter 32 n! UVM_SETINT $end
$var parameter 32 o! UVM_SETOBJ $end
$var parameter 32 p! UVM_SETSTR $end
$var parameter 32 q! UVM_END_FUNCS $end
$var parameter 32 r! UVM_STR_CRC_POLYNOMIAL $end
$var parameter 32 s! UVM_STDOUT $end
$var parameter 32 t! UVM_LINE_WIDTH $end
$var parameter 32 u! UVM_NUM_LINES $end
$var parameter 32 v! UVM_SMALL_STRING $end
$var parameter 32 w! UVM_LARGE_STRING $end
$var reg 1 x! uvm_start_uvm_declarations $end
$var integer 32 y! uvm_global_random_seed $end
$var integer 32 z! UVM_UNBOUNDED_CONNECTIONS $end

$scope function uvm_hdl_check_path $end
$var integer 32 {! uvm_hdl_check_path $end
$upscope $end

$scope function uvm_hdl_deposit $end
$var integer 32 |! uvm_hdl_deposit $end
$var reg 1024 }! value [1023:0] $end
$upscope $end

$scope function uvm_hdl_force $end
$var integer 32 ~! uvm_hdl_force $end
$var reg 1024 !" value [1023:0] $end
$upscope $end

$scope task uvm_hdl_force_time $end
$var reg 1024 "" value [1023:0] $end
$var time 64 #" force_time $end
$upscope $end

$scope function uvm_hdl_release_and_read $end
$var integer 32 $" uvm_hdl_release_and_read $end
$var reg 1024 %" value [1023:0] $end
$upscope $end

$scope function uvm_hdl_release $end
$var integer 32 &" uvm_hdl_release $end
$upscope $end

$scope function uvm_hdl_read $end
$var integer 32 '" uvm_hdl_read $end
$var reg 1024 (" value [1023:0] $end
$upscope $end

$scope function uvm_dpi_get_next_arg_c $end
$var integer 32 )" init $end
$upscope $end

$scope function uvm_dpi_get_tool_name_c $end
$upscope $end

$scope function uvm_dpi_get_tool_version_c $end
$upscope $end

$scope function uvm_dpi_get_next_arg $end
$var integer 32 *" init $end
$upscope $end

$scope function uvm_dpi_get_tool_name $end
$upscope $end

$scope function uvm_dpi_get_tool_version $end
$upscope $end

$scope function uvm_dpi_regcomp $end
$upscope $end

$scope function uvm_dpi_regexec $end
$var integer 32 +" uvm_dpi_regexec $end
$upscope $end

$scope function uvm_dpi_regfree $end
$upscope $end

$scope function uvm_re_match $end
$var integer 32 ," uvm_re_match $end
$upscope $end

$scope function uvm_dump_re_cache $end
$upscope $end

$scope function uvm_glob_to_re $end
$upscope $end

$scope function uvm_revision_string $end
$upscope $end

$scope function uvm_radix_to_string $end
$var integer 32 -" radix $end
$upscope $end

$scope function uvm_instance_scope $end
$var reg 8 ." c [7:0] $end
$var integer 32 /" pos $end
$upscope $end

$scope function uvm_oneway_hash $end
$var integer 32 0" uvm_oneway_hash $end
$var integer 32 1" seed $end
$var reg 1 2" msb $end
$var reg 8 3" current_byte [7:0] $end
$var reg 32 4" crc1 [31:0] $end
$upscope $end

$scope function uvm_create_random_seed $end
$var integer 32 5" uvm_create_random_seed $end
$upscope $end

$scope function uvm_object_value_str $end
$upscope $end

$scope function uvm_leaf_scope $end
$var reg 8 6" scope_separator [7:0] $end
$var reg 8 7" bracket_match [7:0] $end
$var integer 32 8" pos $end
$var integer 32 9" bmatches $end
$upscope $end

$scope function uvm_bitstream_to_string $end
$var reg 4096 :" value [4095:0] $end
$var integer 32 ;" size $end
$var integer 32 <" radix $end
$upscope $end

$scope function uvm_integral_to_string $end
$var reg 64 =" value [63:0] $end
$var integer 32 >" size $end
$var integer 32 ?" radix $end
$upscope $end

$scope function uvm_vector_to_string $end
$var reg 4096 @" value [4095:0] $end
$var integer 32 A" size $end
$var integer 32 B" radix $end
$upscope $end

$scope function uvm_get_array_index_int $end
$var integer 32 C" uvm_get_array_index_int $end
$var reg 1 D" is_wildcard $end
$var integer 32 E" i $end
$upscope $end

$scope function uvm_get_array_index_string $end
$var reg 1 F" is_wildcard $end
$var integer 32 G" i $end
$upscope $end

$scope function uvm_is_array $end
$var reg 1 H" uvm_is_array $end
$upscope $end

$scope function uvm_has_wildcard $end
$upscope $end

$scope function m_uvm_string_queue_join $end
$upscope $end

$scope task run_test $end
$upscope $end

$scope function global_stop_request $end
$upscope $end

$scope function set_global_timeout $end
$var time 64 I" timeout $end
$var reg 1 J" overridable $end
$upscope $end

$scope function set_global_stop_timeout $end
$var time 64 K" timeout $end
$upscope $end

$scope function uvm_get_report_object $end
$upscope $end

$scope function uvm_report_enabled $end
$var integer 32 L" uvm_report_enabled $end
$var integer 32 M" verbosity $end
$var reg 2 N" severity [1:0] $end
$upscope $end

$scope function uvm_report $end
$var reg 2 O" severity [1:0] $end
$var integer 32 P" verbosity $end
$var integer 32 Q" line $end
$var reg 1 R" report_enabled_checked $end
$upscope $end

$scope function m__uvm_report_dpi $end
$var integer 32 S" severity $end
$var integer 32 T" verbosity $end
$var integer 32 U" line $end
$upscope $end

$scope function uvm_report_info $end
$var integer 32 V" verbosity $end
$var integer 32 W" line $end
$var reg 1 X" report_enabled_checked $end
$upscope $end

$scope function uvm_report_warning $end
$var integer 32 Y" verbosity $end
$var integer 32 Z" line $end
$var reg 1 [" report_enabled_checked $end
$upscope $end

$scope function uvm_report_error $end
$var integer 32 \" verbosity $end
$var integer 32 ]" line $end
$var reg 1 ^" report_enabled_checked $end
$upscope $end

$scope function uvm_report_fatal $end
$var integer 32 _" verbosity $end
$var integer 32 `" line $end
$var reg 1 a" report_enabled_checked $end
$upscope $end

$scope function uvm_process_report_message $end
$upscope $end

$scope function uvm_string_to_severity $end
$var reg 1 b" uvm_string_to_severity $end
$var reg 2 c" sev [1:0] $end
$upscope $end

$scope function uvm_string_to_action $end
$upscope $end

$scope function set_config_int $end
$var reg 4096 d" value [4095:0] $end
$upscope $end

$scope function set_config_object $end
$var reg 1 e" clone $end
$upscope $end

$scope function set_config_string $end
$upscope $end

$scope function uvm_is_match $end
$var reg 1 f" uvm_is_match $end
$upscope $end

$scope function uvm_string_to_bits $end
$var reg 115200 g" uvm_string_to_bits [115199:0] $end
$upscope $end

$scope function uvm_bits_to_string $end
$var reg 115200 h" str [115199:0] $end
$upscope $end

$scope task uvm_wait_for_nba_region $end
$var integer 32 i" nba $end
$var integer 32 j" next_nba $end
$upscope $end

$scope function uvm_split_string $end
$upscope $end

$scope function uvm_hdl_concat2string $end
$upscope $end
$upscope $end

$scope begin testbench_sv_unit $end
$upscope $end

$scope begin questa_uvm_pkg $end
$upscope $end

$scope begin std $end
$upscope $end
$enddefinitions $end
#0
$dumpvars
0D"
0F"
0H"
0b"
b0 c"
bx g"
bx h"
bx }!
bx !"
bx ""
bx %"
bx ("
1x!
02"
b1110001 3"
b1111101110100111101111010111100 4"
bx :"
bx ="
bx @"
0J"
b0 N"
b0 O"
0R"
1X"
0["
0^"
0a"
bx d"
0e"
0f"
1!
0"
bx K!
0L!
1M!
b0 N!
b0 O!
b0 P!
b10000000000 Q!
b1000000000000 R!
b1111000000000000000000000000 S!
b10001 T!
b10101010101 U!
b101010101 V!
b101010101 W!
b0 X!
b1 Y!
b10 Z!
b100 [!
b1000 \!
b10000 ]!
b100000 ^!
b1000000 _!
b10000000 `!
b100000000 a!
b1000000000 b!
b10000000000000 c!
b100000000000000 d!
b1000000000000000 e!
b10000000000000000 f!
b100000000000000000 g!
b100000000000000001 h!
b100000000000000010 i!
b100000000000000011 j!
b100000000000000100 k!
b100000000000000101 l!
b100000000000000110 m!
b100000000000000110 n!
b100000000000000111 o!
b100000000000001000 p!
b100000000000001000 q!
b100110000010001110110110110 r!
b1 s!
b1111000 t!
b1111000 u!
b1110111111 v!
b11100000111111111 w!
b10000000000 #
b10000000 $
b0 -"
b0 6"
b0 7"
b0 8"
b0 9"
b0 C"
b0 E"
b0 G"
b0 {!
b0 |!
b0 ~!
b0 $"
b0 &"
b0 '"
b0 )"
b0 *"
b0 +"
b0 ,"
b10101111111110001010110000110 y!
b101110 ."
b111 /"
b1011001001000000100001000001000 0"
b10101111111110001010110000110 1"
b1000110010100010101000001000001 5"
b0 ;"
b0 <"
b0 >"
b0 ?"
b0 A"
b0 B"
b0 L"
b111110100 M"
b0 P"
b0 Q"
b0 S"
b0 T"
b0 U"
b11001000 V"
b100010110 W"
b0 Y"
b0 Z"
b0 \"
b0 ]"
b0 _"
b0 `"
b100011 i"
b100011 j"
b11111111111111111111111111111111 z!
bx #"
bx I"
bx K"
0J!
0I!
0H!
0G!
0F!
0E!
0D!
0C!
0B!
0A!
0@!
0?!
0>!
0=!
0<!
0;!
0:!
09!
08!
07!
06!
05!
04!
03!
02!
01!
00!
0/!
0.!
0-!
0,!
0+!
0*!
0)!
0(!
0'!
0&!
0%!
0$!
0#!
0"!
0!!
0~
0}
0|
0{
0z
0y
0x
0w
0v
0u
0t
0s
0r
0q
0p
0o
0n
0m
0l
0k
0j
0i
0h
0g
0f
0e
0d
0c
0b
0a
0`
0_
0^
0]
0\
0[
0Z
0Y
0X
0W
0V
0U
0T
0S
0R
0Q
0P
0O
0N
0M
0L
0K
0J
0I
0H
0G
0F
0E
0D
0C
0B
0A
0@
0?
0>
0=
0<
0;
0:
09
08
07
06
05
04
03
02
01
00
0/
0.
0-
0,
0+
0*
0)
0(
0'
0&
1%
$end
#5
0!
1"
0%
1&
#10
1!
1%
b100100 j"
b100100 i"
#15
0!
0%
#20
1!
1%
#21
1'
1J!
1H!
1E!
1D!
1A!
1@!
1>!
17!
16!
15!
13!
10!
1/!
1.!
1-!
1,!
1+!
1*!
1)!
1(!
1&!
1$!
1#!
1"!
1~
1}
1|
1{
1o
1n
1l
1g
1_
1]
1\
1[
1Z
1V
1U
1T
1S
1O
1N
1M
1L
1K
1I
1G
1D
1C
1B
1=
1<
17
15
14
13
12
1.
1-
1,
1+
1)
#25
0!
0%
#30
1!
1%
b100101 j"
b1011001001000000100001000001001 5"
b1 O!
b1 P!
b100101 i"
#31
0'
#35
0!
0%
#40
1!
1%
0M!
#41
1'
1I!
0H!
1G!
1F!
0E!
0D!
1C!
1B!
0A!
1=!
1;!
19!
06!
0,!
0+!
0)!
0(!
0&!
0$!
0#!
0}
1z
1x
1v
1t
1s
1r
1q
1p
0n
0l
1k
1i
0g
1d
1c
0_
0[
0V
0U
1R
1Q
1P
0L
0K
0I
0G
1E
0D
0B
1@
1;
1:
07
16
05
04
03
0.
0-
0,
0)
#45
0!
0%
#50
1!
1%
b100110 j"
b1011001001000000100001000001011 5"
b10 O!
b10 P!
b100110 i"
#51
0'
#55
0!
0%
#60
1!
1%
#61
1'
0I!
1H!
0G!
0F!
1D!
1A!
1?!
0>!
0=!
1<!
0;!
1:!
09!
07!
16!
11!
0/!
0-!
1,!
0*!
1)!
1(!
1&!
0"!
1!!
0~
1}
0|
0{
0x
1u
0r
0p
1n
1m
1l
1f
1e
0c
1a
1`
1_
1^
0]
0\
0Z
1Y
0T
0S
0Q
0P
0O
0N
0M
1L
1K
1J
1I
1H
1G
1D
0C
1?
0<
0:
18
14
02
11
1,
0+
#65
0!
0%
#70
1!
1%
b100111 j"
b1011001001000000100001000001110 5"
b11 O!
b11 P!
b100111 i"
#71
0'
#75
0!
0%
#80
1!
1%
#81
1'
0J!
1I!
1G!
0D!
0C!
0@!
1>!
0<!
1;!
18!
17!
06!
14!
03!
00!
1/!
1-!
1*!
1'!
0&!
1%!
1#!
1"!
0!!
0}
1w
0v
0u
0t
0s
1p
0n
0m
0k
1j
0i
1h
0d
1b
0^
1]
1\
1W
1U
1T
0R
1P
1M
0L
0I
0E
1A
1>
19
17
06
13
01
10
1/
0,
1*
1)
#85
0!
0%
#90
1!
1%
b101000 j"
b1011001001000000100001000010010 5"
b100 O!
b100 P!
b101000 i"
#91
0'
#95
0!
0%
#100
1!
1%
#101
1'
0I!
0H!
1E!
0B!
1@!
0>!
1=!
1<!
0;!
07!
05!
04!
01!
0)!
0'!
1&!
0%!
1$!
0#!
1~
1{
1y
1x
0w
1v
1u
1t
1s
0o
0j
1g
0f
1c
0a
0`
1^
0]
1Z
0T
1S
1R
1Q
0P
1O
1N
0G
1E
0D
1C
1B
0A
0@
0?
0>
0=
0;
1:
08
07
03
11
0/
1.
1-
1,
1+
0*
#105
0!
0%
#110
1!
1%
b101001 j"
b1011001001000000100001000010111 5"
b101 O!
b101 P!
b101001 i"
#111
0'
#115
0!
0%
#120
1!
1%
#121
1'
1I!
1C!
1>!
0:!
19!
14!
13!
12!
0,!
1+!
0(!
1'!
1%!
1#!
0"!
1!!
1}
0{
0z
0u
0t
0s
0p
1o
1n
1m
0l
1i
0h
1d
1`
0_
1]
0\
1T
0S
0Q
1P
0O
0N
1L
0K
0J
0H
1G
0C
0B
1;
09
18
16
04
12
00
1/
0-
1*
0)
#125
0!
0%
#130
1!
1%
b101010 j"
b1011001001000000100001000011101 5"
b110 O!
b110 P!
b101010 i"
#131
0'
#135
0!
0%
#140
1!
1%
#141
1'
1J!
0G!
0A!
0?!
0=!
1:!
09!
08!
16!
02!
0/!
0-!
0$!
0#!
1"!
0!!
0}
1w
0v
1u
1t
1r
0q
1p
0o
0n
1j
0i
0g
0e
0d
0c
0b
1\
1[
0U
1S
1Q
1O
0M
0L
1J
1H
1C
1B
1A
1@
0;
0:
19
08
06
0/
0,
0+
#145
0!
0%
#150
1!
1%
b101011 j"
b1011001001000000100001000100100 5"
b111 O!
b111 P!
b101011 i"
#151
0'
#155
0!
0%
#160
1!
1%
#161
1'
0J!
0@!
0>!
1=!
0<!
1;!
18!
06!
04!
1/!
1-!
0+!
0*!
1)!
1(!
0'!
0&!
0%!
1$!
1#!
1!!
1z
0x
0w
1v
0t
1s
1q
0p
1o
0m
1l
1k
0j
1g
1f
1d
1c
1b
1a
0]
0\
0Z
1X
0S
0P
0O
1N
1M
1K
0J
1F
0E
0C
0B
0A
1>
1=
1:
09
18
13
02
01
1/
1-
1,
1+
0*
1)
#165
0!
0%
#170
1!
1%
b101100 j"
b1011001001000000100001000101100 5"
b1000 O!
b1000 P!
b101100 i"
#171
0'
#175
0!
0%
#180
1!
1%
#181
1'
1J!
1G!
0E!
0C!
1@!
0=!
0;!
19!
08!
16!
12!
11!
10!
0/!
0.!
0-!
1,!
1+!
0)!
1'!
1&!
0"!
0!!
1|
0z
0y
1w
0u
1t
0s
0o
1n
0k
1i
0g
0f
0c
0b
0a
1_
1]
1\
1Z
0Y
1U
0T
1S
0R
0Q
1P
0H
0G
1D
1B
1?
0>
1<
0:
17
16
14
03
11
10
0/
0.
0-
0,
0+
0)
#185
0!
0%
#190
1!
1%
b101101 j"
b1011001001000000100001000110101 5"
b1001 O!
b1001 P!
b101101 i"
#191
0'
#195
0!
0%
#200
1!
1%
#201
1'
0J!
1H!
1D!
1A!
1?!
1=!
18!
17!
06!
15!
14!
02!
00!
1/!
1-!
1)!
0(!
0'!
0&!
1%!
1!!
1z
1y
1x
0v
0t
1s
0r
0q
1o
1m
0l
0i
1g
0_
0U
1T
1R
1Q
1O
0N
0M
0K
1J
1G
0D
1C
1>
0=
1;
1:
07
06
15
04
12
00
1,
1+
1)
#205
0!
0%
#210
1!
1%
b101110 j"
b1011001001000000100001000111111 5"
b1010 O!
b1010 P!
b101110 i"
#211
0'
#215
0!
0%
#220
1!
1%
#221
1'
0I!
0G!
0D!
1B!
0@!
0?!
1;!
08!
07!
04!
03!
12!
0-!
0,!
0+!
1*!
0)!
1(!
1&!
0y
0x
0w
1p
0n
0g
1e
0d
1b
1a
1_
0^
0[
0X
1V
1U
0T
0Q
0O
1N
1L
1I
0F
0C
0B
0@
0?
1=
0<
0;
0:
19
08
0+
1*
0)
#225
0!
0%
#230
1!
1%
b101111 j"
b1011001001000000100001001001010 5"
b1011 O!
b1011 P!
b101111 i"
#231
0'
#235
0!
0%
#240
1!
1%
#241
1'
1J!
1G!
1D!
1C!
0B!
0A!
1?!
0=!
1<!
0:!
09!
16!
05!
13!
10!
1.!
1-!
1'!
0&!
0%!
0#!
0~
1{
0z
1w
1v
1u
1t
0s
1r
1q
0p
1l
1k
1j
1g
1f
1d
1c
0a
0`
1^
1[
1Y
1X
0W
0V
0S
1Q
1O
0N
1M
0L
1K
1C
1A
1@
1?
0>
0=
1:
18
17
16
05
14
01
10
1/
1+
0*
#245
0!
0%
#250
1!
1%
b110000 j"
b1011001001000000100001001010110 5"
b1100 O!
b1100 P!
b110000 i"
#251
0'
#255
0!
0%
#260
1!
1%
#261
1'
0H!
0G!
0C!
1B!
0?!
1=!
1:!
15!
14!
01!
0/!
1,!
0*!
0(!
0'!
1&!
0!!
1}
0{
1z
1y
1x
0w
1p
0m
0l
0k
0j
1i
0g
0f
0c
1`
0]
0Y
0X
1T
1S
0R
0P
0O
1N
1F
1E
1D
0C
1>
1<
1;
0:
09
07
15
04
02
11
00
1.
1*
#265
0!
0%
#270
1!
1%
b110001 j"
b1011001001000000100001001100011 5"
b1101 O!
b1101 P!
b110001 i"
#271
0'
#275
0!
0%
#280
1!
1%
#281
1'
0J!
1H!
1F!
1C!
0B!
1A!
0<!
0;!
0:!
04!
03!
00!
1/!
0-!
0,!
1+!
1*!
1)!
1(!
1'!
0&!
1%!
0$!
1#!
1"!
1!!
1~
0|
0z
0y
0x
0v
1s
0r
0q
0p
1n
0i
1f
0e
0d
0_
0^
0[
0Z
1Y
1W
1V
0S
1P
1O
0M
1L
0K
1H
0E
1C
1B
0A
0?
1=
0<
19
08
17
14
13
12
0/
0.
1)
#285
0!
0%
#290
1!
1%
b110010 j"
b1011001001000000100001001110001 5"
b1110 O!
b1110 P!
b110010 i"
#291
0'
#295
0!
0%
#300
1!
1%
#301
1'
1J!
0H!
1E!
0D!
0A!
1@!
1?!
0=!
1;!
19!
17!
06!
05!
02!
0/!
1-!
1,!
0)!
0'!
0#!
0!!
0}
1|
1v
1r
0n
1l
1j
1i
1g
1d
1c
0b
1a
0`
1_
1]
0\
1[
0Y
0W
0V
1S
1R
0Q
0P
0N
1M
1K
0I
0G
1E
0B
0@
0;
09
06
05
03
02
1/
1.
1-
0,
0+
0)
#305
0!
0%
#310
1!
1%
b110011 j"
b1011001001000000100001010000000 5"
b1111 O!
b1111 P!
b110011 i"
#311
0'
#315
0!
0%
#320
1!
1%
#321
1'
0J!
1I!
0F!
1D!
0C!
1B!
1A!
0?!
1<!
0;!
18!
16!
15!
10!
0-!
0,!
0+!
0*!
1&!
1#!
1!!
0~
1z
1y
0s
0r
1p
0o
1m
1k
0j
0i
0f
0a
1`
1^
0[
1W
1V
0U
0T
1P
1N
0M
0L
0K
0H
1G
0F
0D
0C
1A
1@
1?
0>
1;
1:
19
18
07
15
04
13
12
01
10
0*
1)
#325
0!
0%
#330
1!
1%
b110100 j"
b1011001001000000100001010010000 5"
b10000 O!
b10000 P!
b110100 i"
#331
0'
#335
0!
0%
#340
1!
1%
#341
1'
0I!
1G!
1F!
0E!
0D!
1C!
0B!
0A!
0@!
0<!
1;!
1:!
09!
08!
07!
06!
14!
12!
11!
1/!
1+!
1*!
1)!
0!!
1~
1}
0|
1{
0z
1x
1w
0u
1s
1r
0p
1o
1j
0g
1e
0c
0`
0_
0^
0]
1Z
1Y
1U
1T
0S
0R
0O
0N
1M
1K
0J
1H
1D
1B
0@
1>
0=
1<
09
03
02
1*
#345
0!
0%
#350
1!
1%
b110101 j"
b1011001001000000100001010100001 5"
b10001 O!
b10001 P!
b110101 i"
#351
0'
#355
0!
0%
#360
1!
1%
#361
1'
1J!
1I!
1H!
1E!
1D!
1B!
1A!
1>!
0;!
19!
18!
17!
04!
13!
02!
0.!
0+!
0(!
0#!
0~
0}
1|
1z
0v
1u
0t
0s
0o
1n
0j
1g
1f
0d
1b
1a
1^
1\
1[
0Y
0W
0V
0U
1R
1Q
1N
1L
0K
1J
1I
0G
0E
1@
0?
0>
1=
0;
0:
19
08
16
13
12
00
1,
#365
0!
0%
#370
1!
1%
b110110 j"
b1011001001000000100001010110011 5"
b10010 O!
b10010 P!
b110110 i"
#371
0'
#375
0!
0%
#380
1!
1%
#381
1'
0I!
0H!
0G!
0F!
0E!
1@!
1=!
09!
08!
05!
14!
03!
01!
1.!
1,!
1+!
0)!
1(!
1'!
0&!
1!!
0z
0x
1s
0r
1p
1h
0f
0e
1d
1c
1`
1_
0^
0\
0[
0Z
1X
1W
1V
0T
0Q
0P
0N
1K
0J
0B
0=
1;
1:
09
17
06
0/
0,
#385
0!
0%
#390
1!
1%
b110111 j"
b1011001001000000100001011000110 5"
b10011 O!
b10011 P!
b110111 i"
#391
0'
#395
0!
0%
#400
1!
1%
#401
1'
1H!
1F!
0C!
0A!
1?!
1<!
1;!
0:!
18!
16!
15!
13!
12!
00!
0/!
0.!
1-!
0,!
0(!
0'!
1&!
0%!
1$!
0"!
0!!
1~
0{
1v
0u
1q
0p
0h
0g
1f
1e
0b
0`
0_
1^
1]
1\
1[
1Z
0W
0V
1S
0R
0M
1G
1F
0D
1C
1?
1>
1=
0<
0;
19
07
05
03
11
0.
1,
0)
#405
0!
0%
#410
1!
1%
b111000 j"
b1011001001000000100001011011010 5"
b10100 O!
b10100 P!
b111000 i"
#411
0'
#415
0!
0%
#420
1!
1%
#421
1'
1C!
0B!
0@!
0>!
0<!
07!
10!
1)!
1(!
0&!
0$!
1!!
0~
0v
0s
1o
0n
0k
1h
0f
0e
0d
1b
0a
0[
0Z
0X
1W
1U
1T
0S
1Q
1P
0L
1J
0I
0G
1D
0C
0?
0>
0=
1<
0:
09
18
17
16
15
14
13
02
01
10
1/
0,
0*
1)
#425
0!
0%
#430
1!
1%
b111001 j"
b1011001001000000100001011101111 5"
b10101 O!
b10101 P!
b111001 i"
#431
0'
#435
0!
0%
#440
1!
1%
#441
1'
0J!
0F!
0D!
1B!
1>!
1<!
08!
06!
05!
04!
1/!
1.!
0-!
1,!
0+!
0)!
0(!
1'!
1&!
1%!
1$!
0!!
0|
1{
0y
1v
1t
0o
1j
1f
1e
0c
0b
1a
1`
1_
0^
1[
1X
0W
1R
0Q
0P
1N
1L
0J
1I
1G
1E
0D
1B
0A
0@
1=
0<
1:
19
08
05
04
03
00
1.
0-
1,
#445
0!
0%
#450
1!
1%
b111010 j"
b1011001001000000100001100000101 5"
b10110 O!
b10110 P!
b111010 i"
#451
0'
#455
0!
0%
#460
1!
1%
#461
1'
1J!
1I!
0C!
0>!
0=!
19!
16!
15!
03!
02!
00!
0.!
1-!
0,!
1+!
1)!
0&!
1#!
1"!
1!!
1|
1x
0w
0v
1u
1r
1p
1k
0j
1i
0h
1g
0a
1^
0]
1Y
1W
1V
0T
1S
0L
0K
0I
0G
0E
1C
0B
1>
0=
1<
1;
09
06
15
14
13
12
0.
1-
1+
#465
0!
0%
